1 10 20
100 200 125
201 210 89
900 1000 174
1 1 1
2 2 2
3 3 8
4 4 3
5 5 6
6 6 9
7 7 17
8 8 4
9 9 20
10 10 7
20 20 8
30 30 19
40 40 9
50 50 25
60 60 20
70 70 15
80 80 10
90 90 18
100 100 26
200 200 27
300 300 17
400 400 28
500 500 111
600 600 18
700 700 83
800 800 29
900 900 55
1000 1000 112
2000 2000 113
3000 3000 49
4000 4000 114
5000 5000 29
6000 6000 50
7000 7000 32
8000 8000 115
9000 9000 48
10000 10000 30
20000 20000 31
30000 30000 179
40000 40000 32
50000 50000 128
60000 60000 180
70000 70000 82
80000 80000 33
90000 90000 165
100000 100000 129
200000 200000 130
300000 300000 53
400000 400000 131
500000 500000 152
600000 600000 54
700000 700000 168
800000 800000 132
900000 900000 158
999999 999999 259
999999 900000 507
900000 800000 525
800000 700000 504
700000 600000 509
600000 500000 470
500000 400000 449
400000 300000 441
300000 200000 443
200000 100000 383
100000 90000 333
90000 80000 333
80000 70000 351
70000 60000 335
60000 50000 340
50000 40000 314
40000 30000 324
30000 20000 308
20000 10000 279
10000 9000 260
9000 8000 247
8000 7000 252
7000 6000 262
6000 5000 236
5000 4000 215
4000 3000 238
3000 2000 217
2000 1000 182
1000 900 174
900 800 179
800 700 171
700 600 145
600 500 137
500 400 142
400 300 144
300 200 128
200 100 125
100 90 119
90 80 111
80 70 116
70 60 108
60 50 113
50 40 110
40 30 107
30 20 112
20 10 21
10 9 20
9 8 20
8 7 17
7 6 17
6 5 9
5 4 6
4 3 8
3 2 8
2 1 2
1 1 1
