.....................
----------------------------------------------------------------------
Ran 21 tests in 2.407s

OK
Name             Stmts   Miss Branch BrPart  Cover   Missing
------------------------------------------------------------
Collatz.py          44      0     20      0   100%
TestCollatz.py      89      0      0      0   100%
------------------------------------------------------------
TOTAL              133      0     20      0   100%
