1 10 20
100 200 125
201 210 89
900 1000 174
2 5 8
15 18 21
25 30 112
45 50 105
3 8 17
12 16 18
22 28 112
35 40 35
1 5 8
7 11 20
13 17 18
19 23 21
4 10 20
20 25 24
30 35 107
40 45 110
1 1 1
1 100 119
20 21 8
95 100 119
105 110 114
115 120 34
125 130 122
135 140 91
145 150 117
155 160 86
165 170 112
175 180 81
185 190 107
195 200 120
205 210 89
215 220 115
225 230 53
235 240 128
245 250 110
255 260 123
265 270 123
275 280 92
285 290 118
295 300 118
305 310 87
315 320 56
325 330 144
335 340 113
160 167 112
1 100 119
10 10 7
17 17 13
20 20 8
11 11 15
2 2 2
5 5 6
35 42 110
154 161 99
28 35 107
139 146 117
97 104 119
136 143 104
50 57 113
158 165 112
54 61 113
89 96 106
125 132 122
82 89 111
3 10 20
148 155 86
7 14 20
133 140 91
38 45 110
75 82 111
110 117 114
111 118 70
95 102 119
172 179 81
61 68 108
91 98 119
99 106 88
37 44 110
27 34 112
18 25 24
147 154 117
152 159 86
58 65 108
145 152 117
131 138 91
169 176 125
26 33 112
65 72 103
29 36 107
1 1000000 525
4 11 20
64 71 103
42 49 105
78 85 111
66 73 116
20 27 112
53 60 113
80 87 111
56 63 108
45 52 105
30 37 107
25 32 112
22 29 112
40 47 110
120 127 109
109 116 114
