1 10 20
100 200 125
201 210 89
900 1000 174
100 1 119
55 60 113
30 31 107
999 1999 182
10 10 7
1 1 1
3 3 8
55 45 113
99 999 179
88 888 179
77 777 171
66 666 145
55 555 144
44 444 144
33 333 144
22 222 125
11 111 119
123 456 144
5000 10000 262
10000 20000 279
20000 25000 282
25000 30000 308
35000 30000 311
35000 40000 324
1 50000 324
333 3333 217
4524 19678 279
25788 72960 340
37604 61862 340
63637 26848 340
59756 50669 340
61079 65998 330
21467 61232 340
49530 33090 324
35128 79654 351
75727 38785 340
96139 11065 351
79888 83686 320
74531 84657 351
24712 83548 351
99167 37209 351
52556 93238 351
69162 29303 340
32920 5638 308
34341 87769 351
88732 34555 351
74031 85370 351
26339 54283 340
5418 98869 351
44210 5275 324
51381 76845 340
41167 8105 324
31734 67588 340
25933 75695 340
87561 69040 351
50396 95017 351
17060 21504 279
33761 1794 308
8350 9325 260
41643 69235 340
52054 36788 314
88903 25316 351
7407 20565 279
21760 20170 256
26056 82549 351
33908 72728 340
22042 68796 340
63219 42133 340
1695 9656 262
77078 84156 338
69205 69220 175
92278 45758 351
82993 15410 351
46628 80937 351
46012 50541 314
92233 61780 351
1 999999 525
500000 900000 525
100000 500000 449
900000 999999 507
400000 800000 509
200000 300000 443
300000 400000 441
500000 600000 470
232323 343434 407
333333 666666 509
99999 111111 354
45 54 113
131 636 144
626 545 137
519 412 142
719 799 153
181 842 171
13 281 128
812 784 135
666 148 145
971 856 179
526 849 171
102 23 119
143 277 128
122 106 114
988 740 179
937 138 179
798128 798127 194
43331 43324 102
380306 380300 105
956834 956833 246
797275 797274 194
943858 943855 202
11776 11774 126
246347 246346 182
146122 146121 158
703653 703652 168
484274 484263 214
601951 601950 235
136830 136816 176
97319 97318 191
670738 670737 186
733915 733914 150
543303 543301 147
386019 386015 193
402929 402928 237
383068 383067 162
209099 209097 174
104388 104387 142
753286 753285 181
661441 661424 186
789026 789025 194
772723 772721 49
784323 784304 269
917691 917689 140
67116 67108 268
421369 421364 206
633308 633307 129
777776 777775 194
205209 205208 174
280912 280908 177
322668 322666 185
102282 102281 310
770879 770876 150
749462 749460 181
449827 449826 87
850244 850243 83
964680 964676 122
397711 397708 100
268306 268305 164
73186 73181 126
694159 694157 137
210736 210716 324
469806 469805 108
774616 774615 194
